Get started with rifttable • rifttable
…
After installation (using
remotes::install_github("stopsack/rifttable")), load the
package with:

library(rifttable)

Loading example data

The breastcancer dataset of a binary outcome is included
in the package:

data(breastcancer)

breastcancer
#> # A tibble: 192 × 3
#>    death stage    receptor
#>    <dbl> <chr>    <chr>   
#>  1     1 Stage I  Low     
#>  2     1 Stage I  Low     
#>  3     1 Stage I  High    
#>  4     1 Stage I  High    
#>  5     1 Stage I  High    
#>  6     1 Stage I  High    
#>  7     1 Stage I  High    
#>  8     1 Stage II Low     
#>  9     1 Stage II Low     
#> 10     1 Stage II Low     
#> # … with 182 more rows
…
data(cancer, package = "survival")

cancer <- cancer |>
  tibble::as_tibble() |>
  dplyr::mutate(
    # The exposure (here, 'sex') must be categorical
    sex = factor(
      sex,
      levels = 1:2,
      labels = c("Male", "Female")),
    time = time / 365.25,
    status = status - 1)

cancer
#> # A tibble: 228 × 10
#>     inst  time status   age sex    ph.ecog ph.karno pat.karno meal.cal wt.loss
#>    <dbl> <dbl>  <dbl> <dbl> <fct>    <dbl>    <dbl>     <dbl>    <dbl>   <dbl>
#>  1     3 0.838      1    74 Male         1       90       100     1175      NA
#>  2     3 1.25       1    68 Male         0       90        90     1225      15
#>  3     3 2.77       0    56 Male         0       90        90       NA      15
#>  4     5 0.575      1    57 Male         1       90        60     1150      11
#>  5     1 2.42       1    60 Male         0      100        90       NA       0
#>  6    12 2.80       0    74 Male         1       50        80      513       0
#>  7     7 0.849      1    68 Female       2       70        60      384      10
#>  8    11 0.988      1    71 Female       2       60        80      538       1
#>  9     1 0.597      1    53 Male         1       70        80      825      16
#> 10     7 0.454      1    61 Male         2       70        70      271      34
#> # … with 218 more rows
…
